====================================================
 ``mviewer.mplot``
====================================================

.. contents::
    :local:
.. py:currentmodule:: mviewer.mplot

.. automodule:: mviewer.mplot
    :members:

