====================================================
 ``mviewer.msample``
====================================================

.. contents::
    :local:
.. py:currentmodule:: mviewer.msample

.. automodule:: mviewer.msample
    :members:

